G:\Hoc_Anh_Son\Learn-JspServlet\src\main\java\com\lecuong\paging\PageRequest.java
G:\Hoc_Anh_Son\Learn-JspServlet\src\main\java\com\lecuong\annotation\Entity.java
G:\Hoc_Anh_Son\Learn-JspServlet\src\main\java\com\lecuong\paging\PageAble.java
G:\Hoc_Anh_Son\Learn-JspServlet\src\main\java\com\lecuong\connection\MySQLConnection.java
G:\Hoc_Anh_Son\Learn-JspServlet\src\main\java\com\lecuong\util\AnnotationUtil.java
G:\Hoc_Anh_Son\Learn-JspServlet\src\main\java\com\lecuong\repository\JpaRepository.java
G:\Hoc_Anh_Son\Learn-JspServlet\src\main\java\com\lecuong\connection\ConnectionInfo.java
G:\Hoc_Anh_Son\Learn-JspServlet\src\main\java\com\lecuong\repository\impl\NhanVienRepositoryImpl.java
G:\Hoc_Anh_Son\Learn-JspServlet\src\main\java\com\lecuong\entity\NhanVien.java
G:\Hoc_Anh_Son\Learn-JspServlet\src\main\java\com\lecuong\util\EntityUlti.java
G:\Hoc_Anh_Son\Learn-JspServlet\src\main\java\com\lecuong\annotation\Id.java
G:\Hoc_Anh_Son\Learn-JspServlet\src\main\java\com\lecuong\controller\HomeController.java
G:\Hoc_Anh_Son\Learn-JspServlet\src\main\java\com\lecuong\annotation\Column.java
G:\Hoc_Anh_Son\Learn-JspServlet\src\main\java\com\lecuong\repository\impl\BaseQuery.java
G:\Hoc_Anh_Son\Learn-JspServlet\src\main\java\com\lecuong\repository\NhanVienRepository.java
G:\Hoc_Anh_Son\Learn-JspServlet\src\main\java\com\lecuong\connection\Main.java
